U13_Research/QuartusProject/cv1k.vcd
$comment
Copyright (C) 1991-2010 Altera Corporation
Your use of Altera Corporation's design tools, logic functions 
and other software and tools, and its AMPP partner logic 
functions, and any output files from any of the foregoing 
(including device programming or simulation files), and any 
associated documentation or information are expressly subject 
to the terms and conditions of the Altera Program License 
Subscription Agreement, Altera MegaCore Function License 
Agreement, or other applicable license agreement, including, 
without limitation, that your use is for the sole purpose of 
programming logic devices manufactured by Altera and sold by 
Altera or its authorized distributors.  Please refer to the 
applicable agreement for further details.
$end

$date 
  03/28/2021 14:56:31 
$end
$version 
 QUARTUS_VCD_EXPORT 1.0 
$end
$timescale
  1 ps
$end
$var reg 1 ! reset $end
$var reg 1 " clock $end
$var reg 1 # clock2 $end
$var reg 1 $ cs4 $end
$var reg 2 % addr_high[1:0] $end
$var reg 2 & addr_low[1:0] $end
$var reg 4 ' data[3:0] $end
$var reg 1 ( sh3_rd $end
$var reg 1 ) sh3_we $end
$var reg 1 * u2_ce $end
$var reg 1 + u2_re $end
$var reg 1 , u2_we $end
$var reg 1 - eeprom_ce $end
$var reg 1 . eeprom_clock $end
$var reg 1 / eeprom_di $end
$var reg 1 0 eeprom_do $end
$var reg 1 1 eeprom_foe $end
$var reg 1 2 audio_cs $end
$var reg 1 3 audio_reset $end
$var reg 1 4 cs6 $end
$var reg 1 5 sh3_wait $end
$var reg 1 6 blitter_out $end
$var reg 1 7 \data[0]~result  $end
$var reg 1 8 \data[1]~result  $end
$var reg 1 9 \data[2]~result  $end
$var reg 1 : \data[3]~result  $end
$var reg 1 ; global_clr $end
$var reg 1 < global_oe $end
$var reg 1 = eeprom_is_output $end
$enddefinitions $end
#0
$dumpvars
0!
0"
X#
1$
b11 %
b10 &
b1 '
1(
1)
1*
1+
1,
0-
0.
0/
00
11
12
03
14
15
16
17
08
09
0:
0;
0<
0=
$end
#2500
1"
#5000
0"
#7500
1"
#10000
1!
0"
#12500
1"
#15000
0"
#17500
1"
#20000
0"
0$
#22500
1"
#25000
0"
#27500
1"
#30000
0"
1$
b1110 '
07
18
19
1:
#32500
1"
#35000
0"
#37500
1"
#40000
0"
0$
#42500
1"
13
#45000
0"
#47500
1"
#50000
0"
1$
b1 '
17
08
09
0:
#52500
1"
#55000
0"
#57500
1"
#60000
0"
0$
#62500
1"
#65000
0"
#67500
1"
#70000
0"
1$
b1 %
b0 &
#72500
1"
#75000
0"
#77500
1"
#80000
0"
0$
02
#82500
1"
#85000
0"
#87500
1"
#90000
0"
1$
b11 %
b10 &
12
#92500
1"
#95000
0"
#97500
1"
#100000
0"
0$
#102500
1"
#105000
0"
#107500
1"
#110000
0"
1$
